Homelessness
…
Show Coding Hint

You can use the str_detect function to determine whether
a string includes particular string as a component.

dictionary %>% 
  filter(Derived == "No" & str_detect(`Source or Root Variable`, "See") == FALSE) %>%  
  select(`Source or Root Variable`) %>% 
  unique()

## # A tibble: 26 x 1
##    `Source or Root Variable`                    
##    <chr>                                        
##  1 HUD                                          
##  2 HUD PIT                                      
##  3 HUD System Performance Measures              
##  4 HUD CoC Funding Reports                      
##  5 HUD HIC                                      
##  6 Census Intercensal Population Estimates      
##  7 Census ACS 5-Year Estimates                  
##  8 Federal Housing Finance Agency               
##  9 BLS Local Area Unemployment Statistics (LAUS)
## 10 Census (County Area in Sq. Miles)            
## # ... with 16 more rows
…
